\relax 
\providecommand\hyper@newdestlabel[2]{}
\providecommand\zref@newlabel[2]{}
\providecommand\HyperFirstAtBeginDocument{\AtBeginDocument}
\HyperFirstAtBeginDocument{\ifx\hyper@anchor\@undefined
\global\let\oldcontentsline\contentsline
\gdef\contentsline#1#2#3#4{\oldcontentsline{#1}{#2}{#3}}
\global\let\oldnewlabel\newlabel
\gdef\newlabel#1#2{\newlabelxx{#1}#2}
\gdef\newlabelxx#1#2#3#4#5#6{\oldnewlabel{#1}{{#2}{#3}}}
\AtEndDocument{\ifx\hyper@anchor\@undefined
\let\contentsline\oldcontentsline
\let\newlabel\oldnewlabel
\fi}
\fi}
\global\let\hyper@last\relax 
\gdef\HyperFirstAtBeginDocument#1{#1}
\providecommand\HyField@AuxAddToFields[1]{}
\providecommand\HyField@AuxAddToCoFields[2]{}
\providecommand\pbs@newkey[2]{}
\providecommand\pbs@seq@push@cx[2]{}
\providecommand\pbs@at@end@dvi@check{}
\pbs@at@end@dvi@check
\providecommand\@anim@newkey[2]{}
\pbs@newkey{pbs@last@page}{1}
\pbs@newkey{pbs@last@page}{2}
\@writefile{toc}{\contentsline {section}{\numberline {1}Introduction}{2}{section.1}}
\newlabel{para:introduction}{{1}{2}{Introduction}{section.1}{}}
\@writefile{lof}{\contentsline {figure}{\numberline {1}{\ignorespaces }}{2}{figure.1}}
\newlabel{fig:fig1}{{1}{2}{}{figure.1}{}}
\@writefile{toc}{\contentsline {section}{\numberline {2}Pr\IeC {\'e}sentation}{2}{section.2}}
\newlabel{para:presentation}{{2}{2}{Présentation}{section.2}{}}
\pbs@newkey{pbs@last@page}{3}
\newlabel{fig:snaps1}{{2}{3}{Présentation}{subfigure.2.2}{}}
\@writefile{lof}{\contentsline {subfigure}{\numberline{(a)}{\ignorespaces {}}}{3}{subfigure.2.2}}
\@writefile{lof}{\contentsline {subfigure}{\numberline{(b)}{\ignorespaces {}}}{3}{subfigure.2.2}}
\newlabel{fig:snaps2}{{2}{3}{Présentation}{subfigure.2.4}{}}
\@writefile{lof}{\contentsline {subfigure}{\numberline{(c)}{\ignorespaces {}}}{3}{subfigure.2.4}}
\@writefile{lof}{\contentsline {subfigure}{\numberline{(d)}{\ignorespaces {}}}{3}{subfigure.2.4}}
\pbs@newkey{pbs@last@page}{4}
\@writefile{toc}{\contentsline {section}{\numberline {3}Entr\IeC {\'e}es}{4}{section.3}}
\newlabel{para:input}{{3}{4}{Entrées}{section.3}{}}
\@writefile{toc}{\contentsline {subsection}{\numberline {3.1}Le fichier \textit  {data/global\_settings.in}}{4}{subsection.3.1}}
\pbs@newkey{pbs@last@page}{5}
\@writefile{toc}{\contentsline {subsection}{\numberline {3.2}Les fichiers de d\IeC {\'e}finition des \IeC {\'e}l\IeC {\'e}ments de g\IeC {\'e}om\IeC {\'e}trie}{5}{subsection.3.2}}
\@writefile{toc}{\contentsline {subsection}{\numberline {3.3}Les fichiers de propri\IeC {\'e}t\IeC {\'e}s optique de surface des mat\IeC {\'e}riaux}{5}{subsection.3.3}}
\pbs@newkey{pbs@last@page}{6}
\@writefile{toc}{\contentsline {subsection}{\numberline {3.4}Le fichier \textit  {data/rgb\_color\_codes.in}}{6}{subsection.3.4}}
\@writefile{toc}{\contentsline {subsection}{\numberline {3.5}Les fichiers de g\IeC {\'e}om\IeC {\'e}trie additionnels}{6}{subsection.3.5}}
\@writefile{toc}{\contentsline {section}{\numberline {4}Sorties}{6}{section.4}}
\newlabel{para:output}{{4}{6}{Sorties}{section.4}{}}
\@writefile{toc}{\contentsline {subsection}{\numberline {4.1}Le fichier de g\IeC {\'e}om\IeC {\'e}trie}{6}{subsection.4.1}}
\newlabel{para:out1}{{4.1}{6}{Le fichier de géométrie}{subsection.4.1}{}}
\bibstyle{unsrt}
\bibdata{biblio}
\pbs@newkey{pbs@last@page}{7}
\@writefile{toc}{\contentsline {subsection}{\numberline {4.2}Les fichiers de r\IeC {\'e}flectivit\IeC {\'e} spectrale}{7}{subsection.4.2}}
\newlabel{para:out2}{{4.2}{7}{Les fichiers de réflectivité spectrale}{subsection.4.2}{}}
\@writefile{toc}{\contentsline {section}{\numberline {5}Evolution du code}{7}{section.5}}
\newlabel{para:todo}{{5}{7}{Evolution du code}{section.5}{}}
\@writefile{toc}{\contentsline {section}{\numberline {6}Copyright}{7}{section.6}}
\newlabel{para:copyright}{{6}{7}{Copyright}{section.6}{}}
